\begin{tikzpicture}
	\begin{pgfonlayer}{nodelayer}
		\node [style=none] (0) at (0, 4) {};
		\node [style=none] (1) at (7, 4) {};
		\node [style=none] (2) at (7, 0) {};
		\node [style=none] (3) at (0, 0) {};
		\node [style=none] (4) at (0.75, 4) {};
		\node [style=none] (5) at (0.75, 0) {};
		\node [style=none] (6) at (-2.75, 4) {};
		\node [style=none] (7) at (-2.75, 0) {};
		\node [style=none] (8) at (3, 3.5) {};
		\node [style=none] (9) at (3.5, 2.5) {};
		\node [style=none] (10) at (6, 2.5) {};
		\node [style=none] (11) at (5.5, 2) {};
		\node [style=none] (12) at (3.5, 1.25) {};
		\node [style=none] (13) at (4, 0.75) {};
		\node [style=none] (14) at (2.5, -0.75) {$Q=0$};
	\end{pgfonlayer}
	\begin{pgfonlayer}{edgelayer}
		\draw (0.center) to (1.center);
		\draw (1.center) to (2.center);
		\draw (3.center) to (2.center);
		\draw (3.center) to (0.center);
		\draw (4.center) to (5.center);
		\draw (6.center) to (0.center);
		\draw (7.center) to (3.center);
		\draw (9.center) to (8.center);
		\draw (11.center) to (10.center);
		\draw (13.center) to (12.center);
	\end{pgfonlayer}
\end{tikzpicture}
