\begin{tikzpicture}
	\begin{pgfonlayer}{nodelayer}
		\node [style=none] (0) at (0, 0) {};
		\node [style=none] (1) at (0, 6) {};
		\node [style=none] (2) at (10, 0) {};
		\node [style=none] (11) at (-0.25, -0.25) {0};
		\node [style=none] (22) at (-0.75, 6) {$P$};
		\node [style=none] (23) at (10, -0.5) {$V$};
		\node [style=none] (24) at (1, 6) {};
		\node [style=none] (25) at (1, 0) {};
		\node [style=none] (26) at (1.5, 5) {};
		\node [style=none] (27) at (2, 5.25) {};
		\node [style=none] (28) at (2.25, 5.75) {};
		\node [style=none] (29) at (9.25, 3.75) {};
		\node [style=none] (30) at (8.75, 2.5) {};
		\node [style=none] (31) at (5.25, 2) {};
		\node [style=none] (32) at (5, 3.75) {};
		\node [style=none] (33) at (4, 1) {};
		\node [style=none] (34) at (1.75, 1.75) {};
		\node [style=none] (35) at (3, 3.75) {};
		\node [style=none] (36) at (8.25, 1) {};
		\node [style=none] (37) at (10.25, 3.75) {$T>T_C$};
		\node [style=none] (38) at (10.25, 2.5) {$T=T_C$};
		\node [style=none] (39) at (10, 1) {$T<T_C$};
	\end{pgfonlayer}
	\begin{pgfonlayer}{edgelayer}
		\draw [style=arrowZ] (0.center) to (1.center);
		\draw [style=arrowZ] (0.center) to (2.center);
		\draw [style=dash-edgeZ] (25.center) to (24.center);
		\draw [bend right=15, looseness=0.50] (28.center) to (29.center);
		\draw [bend right=15] (27.center) to (35.center);
		\draw [bend right, looseness=1.25] (35.center) to (32.center);
		\draw [bend left=15, looseness=0.50] (32.center) to (30.center);
		\draw [bend right=15] (26.center) to (34.center);
		\draw [bend right=60, looseness=2.00] (34.center) to (33.center);
		\draw [bend left, looseness=1.25] (33.center) to (31.center);
		\draw (31.center) to (36.center);
	\end{pgfonlayer}
\end{tikzpicture}
