\begin{tikzpicture}
	\begin{pgfonlayer}{nodelayer}
		\node [style=none] (0) at (0, 0) {};
		\node [style=none] (1) at (0, 6) {};
		\node [style=none] (2) at (6, 0) {};
		\node [style=none] (11) at (-0.25, -0.25) {0};
		\node [style=none] (22) at (-0.75, 6) {$T$};
		\node [style=none] (23) at (6, -0.5) {$S$};
		\node [style=none] (24) at (3, 3) {};
		\node [style=none] (25) at (-0.75, 4.25) {};
		\node [style=none] (26) at (0.75, 0.75) {1};
		\node [style=none] (27) at (0.75, 1.5) {2};
	\end{pgfonlayer}
	\begin{pgfonlayer}{edgelayer}
		\draw [style=arrowZ] (0.center) to (1.center);
		\draw [style=arrowZ] (0.center) to (2.center);
		\draw [in=-180, out=30, looseness=0.75] (0.center) to (24.center);
		\draw [in=165, out=-15, looseness=0.75] (24.center) to (2.center);
	\end{pgfonlayer}
\end{tikzpicture}
